{
    "fileServerFolder": ".",
    "fixturesFolder": "./src/fixtures",
    "integrationFolder": "./src/integration",
    "modifyObstructiveCode": false,
    "pluginsFile": "./src/plugins/index",
    "supportFile": "./src/support/index.ts",
    "video": true,
    "videosFolder": "../../dist/cypress/apps/ginza-web-e2e/videos",
    "screenshotsFolder": "../../dist/cypress/apps/ginza-web-e2e/screenshots",
    "chromeWebSecurity": false
}
